{
    "KPlugin": {
        "Description": "Suspends the session",
        "Description[ar]": "يعلّق الجلسة",
        "Description[ast]": "Suspende la sesión",
        "Description[az]": "Sessiyanı dayandırır",
        "Description[bs]": "Obustavlja sesiju",
        "Description[ca@valencia]": "Suspèn la sessió",
        "Description[ca]": "Suspèn la sessió",
        "Description[cs]": "Pozastaví sezení",
        "Description[da]": "Suspenderer sessionen",
        "Description[de]": "Versetzt die Sitzung in den Standby-Modus",
        "Description[el]": "Αναστέλλει τη συνεδρία",
        "Description[en_GB]": "Suspends the session",
        "Description[es]": "Suspende la sesión",
        "Description[et]": "Seansi peatamine",
        "Description[eu]": "Saioa egonean uzten du",
        "Description[fi]": "Keskeyttää istunnon",
        "Description[fr]": "Suspend la session",
        "Description[gl]": "Suspende a sesión",
        "Description[he]": "השהה את ההפעלה",
        "Description[hu]": "A munkamenet felfüggesztése",
        "Description[ia]": "Il suspende le session",
        "Description[id]": "Mensuspensikan sesi",
        "Description[it]": "Sospende la sessione",
        "Description[ja]": "セッションをサスペンドします",
        "Description[ko]": "세션을 일시 중단합니다",
        "Description[lt]": "Pristabdo seansą",
        "Description[ml]": "സെഷൻ സസ്‌പെൻഡ് ചെയ്യുന്നു",
        "Description[nb]": "Låser økta",
        "Description[nds]": "Sett den Törn ut",
        "Description[nl]": "De sessie onderbreken",
        "Description[nn]": "Lås økta",
        "Description[pa]": "ਸ਼ੈਸ਼ਨ ਸਸਪੈਂਡ ਕਰੋ",
        "Description[pl]": "Wstrzymuje sesję",
        "Description[pt]": "Suspende a sessão",
        "Description[pt_BR]": "Suspende a sessão",
        "Description[ro]": "Suspendă sesiunea",
        "Description[ru]": "Приостанавливает текущий сеанс",
        "Description[sk]": "Pozastaví sedenie",
        "Description[sl]": "Prestavi sejo v pripravljenost",
        "Description[sr@ijekavian]": "Суспендује сесију",
        "Description[sr@ijekavianlatin]": "Suspenduje sesiju",
        "Description[sr@latin]": "Suspenduje sesiju",
        "Description[sr]": "Суспендује сесију",
        "Description[sv]": "Stoppar sessionen tillfälligt",
        "Description[ta]": "அமர்வை உறங்கசெய்யும்",
        "Description[tg]": "Ҷаласаро таваққуф мекунад",
        "Description[tr]": "Geçerli oturumu askıya alır",
        "Description[uk]": "Призупиняє сеанс",
        "Description[x-test]": "xxSuspends the sessionxx",
        "Description[zh_CN]": "挂起会话",
        "Description[zh_TW]": "暫停工作階段",
        "Icon": "system-shutdown",
        "Name": "Suspend session",
        "Name[ar]": "علِّق الحِلسة",
        "Name[ast]": "Suspender la sesión",
        "Name[az]": "Sessiyanı dayandırmaq",
        "Name[bs]": "Obustavi sesiju",
        "Name[ca@valencia]": "Suspèn la sessió",
        "Name[ca]": "Suspèn la sessió",
        "Name[cs]": "Pozastavit sezení",
        "Name[da]": "Suspendér session",
        "Name[de]": "Sitzung in den Standby-Modus versetzen",
        "Name[el]": "Αναστολή συνεδρίας",
        "Name[en_GB]": "Suspend session",
        "Name[es]": "Suspender la sesión",
        "Name[et]": "Seansi peatamine",
        "Name[eu]": "Egonean utzi saioa",
        "Name[fi]": "Keskeytä istunto",
        "Name[fr]": "Suspendre la session",
        "Name[gl]": "Suspender a sesión",
        "Name[he]": "השהה הפעלה (מצב שינה)",
        "Name[hu]": "Munkamenet felfüggesztése",
        "Name[ia]": "Suspende session",
        "Name[id]": "Suspensi sesi",
        "Name[it]": "Sospendi la sessione",
        "Name[ja]": "セッションをサスペンド",
        "Name[ko]": "세션 일시 정지",
        "Name[lt]": "Pristabdyti seansą",
        "Name[ml]": "സെഷൻ സസ്‌പെൻഡ് ചെയ്യുക",
        "Name[nb]": "Lås økt",
        "Name[nds]": "Törn utsetten",
        "Name[nl]": "Sessie onderbreken",
        "Name[nn]": "Lås økta",
        "Name[pa]": "ਸ਼ੈਸ਼ਨ ਸਸਪੈਂਡ",
        "Name[pl]": "Wstrzymaj sesję",
        "Name[pt]": "Suspender a sessão",
        "Name[pt_BR]": "Suspender sessão",
        "Name[ro]": "Suspendă sesiunea",
        "Name[ru]": "Приостановка сеанса",
        "Name[sk]": "Pozastaviť sedenie",
        "Name[sl]": "Prestavi sejo v pripravljenost",
        "Name[sr@ijekavian]": "Суспендуј сесију",
        "Name[sr@ijekavianlatin]": "Suspenduj sesiju",
        "Name[sr@latin]": "Suspenduj sesiju",
        "Name[sr]": "Суспендуј сесију",
        "Name[sv]": "Stoppa tillfälligt session",
        "Name[ta]": "அமர்வை உறங்கசெய்",
        "Name[tg]": "Таваққуф кардани ҷаласа",
        "Name[tr]": "Oturumu askıya al",
        "Name[uk]": "Призупинити сеанс",
        "Name[x-test]": "xxSuspend sessionxx",
        "Name[zh_CN]": "挂起会话",
        "Name[zh_TW]": "暫停工作階段",
        "ServiceTypes": [
            "PowerDevil/Action"
        ]
    },
    "X-KDE-PowerDevil-Action-ConfigPriority": 90,
    "X-KDE-PowerDevil-Action-ID": "SuspendSession",
    "X-KDE-PowerDevil-Action-RegistersDBusInterface": true,
    "X-KDE-PowerDevil-Action-UIComponentLibrary": "powerdevilsuspendsessionaction_config"
}
