{
    "KPlugin": {
        "Description": "Basic Controls for brightness",
        "Description[ar]": "تحكم بسيط بالسطوع",
        "Description[az]": "Parlaqlığın idarə edilməsinin əsas elementləri",
        "Description[bs]": "Osnovne kontrole osvjetljenja",
        "Description[ca@valencia]": "Controls bàsics per a la lluminositat",
        "Description[ca]": "Controls bàsics per a la lluminositat",
        "Description[cs]": "Základní ovládání jasu",
        "Description[da]": "Basal kontrol af lysstyrke",
        "Description[de]": "Grundeinstellungen zur Bildschirmhelligkeit",
        "Description[el]": "Βασικά στοιχεία ελέγχου λαμπρότητας",
        "Description[en_GB]": "Basic Controls for brightness",
        "Description[es]": "Control básico del brillo",
        "Description[et]": "Heleduse lihtne juhtimine",
        "Description[eu]": "Distiraren oinarrizko kontrolak",
        "Description[fi]": "Kirkkauden perussäätimet",
        "Description[fr]": "Contrôles simples de la luminosité",
        "Description[gl]": "Controis básicos do brillo",
        "Description[he]": "שליטה בבהירות",
        "Description[hu]": "Alap fényerő-beállítások",
        "Description[ia]": "Controlos basic pro brillantia",
        "Description[id]": "Kendali Dasar pada kecerahan",
        "Description[it]": "Controlli di base della luminosità",
        "Description[ja]": "明るさの基本的な制御",
        "Description[ko]": "기본 밝기 제어",
        "Description[lt]": "Pagrindiniai ryškumo valdikliai",
        "Description[ml]": "തെളിച്ചത്തിനുള്ള അടിസ്ഥാന നിയന്ത്രണങ്ങൾ",
        "Description[nb]": "Grunnleggende styring av lysstyrke",
        "Description[nds]": "Eenfach Helligkeit-Instellen",
        "Description[nl]": "Basisbesturing voor helderheid",
        "Description[nn]": "Grunnleggjande styring av lysstyrke",
        "Description[pa]": "ਚਮਕ ਲਈ ਮੁੱਢਲੇ ਕੰਟਰੋਲ",
        "Description[pl]": "Podstawowe sterowanie jasnością",
        "Description[pt]": "Controlos básicos do brilho",
        "Description[pt_BR]": "Controles básicos do brilho",
        "Description[ro]": "Controale de bază pentru luminozitate",
        "Description[ru]": "Базовые функции управления яркостью",
        "Description[sk]": "Základné ovládanie jasu",
        "Description[sl]": "Osnovni nadzor svetlosti",
        "Description[sr@ijekavian]": "Основне контроле освјетљаја",
        "Description[sr@ijekavianlatin]": "Osnovne kontrole osvjetljaja",
        "Description[sr@latin]": "Osnovne kontrole osvetljaja",
        "Description[sr]": "Основне контроле осветљаја",
        "Description[sv]": "Grundkontroller för ljusstyrka",
        "Description[ta]": "திரையின் பிரகாசத்திற்கான அடிப்படை இயக்கிகள்",
        "Description[tg]": "Унсурҳои идоракунии асосӣ барои дурахшонӣ",
        "Description[tr]": "Parlaklık için temel denetimler",
        "Description[uk]": "Базове керування яскравістю",
        "Description[x-test]": "xxBasic Controls for brightnessxx",
        "Description[zh_CN]": "亮度基本控制",
        "Description[zh_TW]": "基本亮度控制",
        "Icon": "preferences-system-power-management",
        "Name": "Screen brightness",
        "Name[ar]": "سطوع الشاشة",
        "Name[az]": "Ekran parlaqlığı",
        "Name[bs]": "Svjetlost ekrana",
        "Name[ca@valencia]": "Lluminositat de la pantalla",
        "Name[ca]": "Lluminositat de la pantalla",
        "Name[cs]": "Jas obrazovky",
        "Name[da]": "Skærmens lysstyrke",
        "Name[de]": "Bildschirmhelligkeit",
        "Name[el]": "Λαμπρότητα οθόνης",
        "Name[en_GB]": "Screen brightness",
        "Name[es]": "Brillo de la pantalla",
        "Name[et]": "Ekraani heledus",
        "Name[eu]": "Pantailaren distira",
        "Name[fi]": "Näytön kirkkaus",
        "Name[fr]": "Luminosité de l'écran",
        "Name[gl]": "Brillo da pantalla",
        "Name[he]": "בהירות מסך",
        "Name[hu]": "Képernyő fényessége",
        "Name[ia]": "Brillantia de Schermo",
        "Name[id]": "Kecerahan layar",
        "Name[it]": "Luminosità dello schermo",
        "Name[ja]": "スクリーンの明るさ",
        "Name[ko]": "화면 밝기",
        "Name[lt]": "Ekrano ryškumas",
        "Name[ml]": "സ്ക്രീന്‍ തെളിച്ചം",
        "Name[nb]": "Skjermlysstyrke",
        "Name[nds]": "Schirm-Helligkeit",
        "Name[nl]": "Schermhelderheid",
        "Name[nn]": "Skjermlysstyrke",
        "Name[pa]": "ਸਕਰੀਨ ਚਮਕ",
        "Name[pl]": "Jasność ekranu",
        "Name[pt]": "Brilho do ecrã",
        "Name[pt_BR]": "Brilho da tela",
        "Name[ro]": "Luminozitate ecran",
        "Name[ru]": "Яркость экрана",
        "Name[sk]": "Jas obrazovky",
        "Name[sl]": "Svetlost zaslona",
        "Name[sr@ijekavian]": "Освјетљај екрана",
        "Name[sr@ijekavianlatin]": "Osvjetljaj ekrana",
        "Name[sr@latin]": "Osvetljaj ekrana",
        "Name[sr]": "Осветљај екрана",
        "Name[sv]": "Skärmljusstyrka",
        "Name[ta]": "தரையின் பிரகாசம்",
        "Name[tg]": "Дурахшонии экран",
        "Name[tr]": "Ekran parlaklığı",
        "Name[uk]": "Яскравість екрана",
        "Name[x-test]": "xxScreen brightnessxx",
        "Name[zh_CN]": "屏幕亮度",
        "Name[zh_TW]": "螢幕亮度",
        "ServiceTypes": [
            "PowerDevil/Action"
        ]
    },
    "X-KDE-PowerDevil-Action-ConfigPriority": 100,
    "X-KDE-PowerDevil-Action-HasRuntimeRequirement": true,
    "X-KDE-PowerDevil-Action-ID": "BrightnessControl",
    "X-KDE-PowerDevil-Action-RegistersDBusInterface": true,
    "X-KDE-PowerDevil-Action-UIComponentLibrary": "powerdevilbrightnesscontrolaction_config"
}
